Indexing and basic plots
…
```
## # A tibble: 1 x 6
##   country     continent  year lifeExp     pop gdpPercap
##   <fct>       <fct>     <int>   <dbl>   <int>     <dbl>
## 1 Afghanistan Asia       1952    28.8 8425333      779.
```

```r
gapminder[,1] # First column
```

```
## # A tibble: 1,704 x 1
##    country    
##    <fct>      
##  1 Afghanistan
##  2 Afghanistan
##  3 Afghanistan
##  4 Afghanistan
##  5 Afghanistan
##  6 Afghanistan
##  7 Afghanistan
##  8 Afghanistan
##  9 Afghanistan
## 10 Afghanistan
## # … with 1,694 more rows
```
…
If you try to subset something and get a warning about "incorrect number of dimensions", check your subsetting!

---

# Indexing by Expression

We can also index using expressions—logical *tests*.

```r
gapminder[gapminder$year==1952, ]
```

```
## # A tibble: 142 x 6
##    country     continent  year lifeExp      pop gdpPercap
##    <fct>       <fct>     <int>   <dbl>    <int>     <dbl>
##  1 Afghanistan Asia       1952    28.8  8425333      779.
##  2 Albania     Europe     1952    55.2  1282697     1601.
##  3 Algeria     Africa     1952    43.1  9279525     2449.
##  4 Angola      Africa     1952    30.0  4232095     3521.
##  5 Argentina   Americas   1952    62.5 17876956     5911.
##  6 Australia   Oceania    1952    69.1  8691212    10040.
##  7 Austria     Europe     1952    66.8  6927772     6137.
##  8 Bahrain     Asia       1952    50.9   120447     9867.
##  9 Bangladesh  Asia       1952    37.5 46886859      684.
## 10 Belgium     Europe     1952    68    8730405     8343.
## # … with 132 more rows
```
…
